Variables:
…
Count number of runs for each setting>

df <- res_to_df(as.list(seq_along(filepaths)), filepaths, names)
head(df)
tidyr::pivot_wider(aggregate(rep(1, nrow(df)), df[, names[!names == "r"]], sum), 
                   names_from = "struct", values_from = "x")

##   network   init struct    sample  epf regular     N   r tmp
## 1  LDAG10 hcskel    dag partition epf1    reg1 N1000 r01   1
## 2  LDAG10 hcskel    dag partition epf1    reg1 N1000 r02   2
## 3  LDAG10 hcskel    dag partition epf1    reg1 N1000 r03   3
## 4  LDAG10 hcskel    dag partition epf1    reg1 N1000 r04   4
## 5  LDAG10 hcskel    dag partition epf1    reg1 N1000 r05   5
## 6  LDAG10 hcskel    dag partition epf1    reg1 N1000 r06   6
## # A tibble: 48 × 9
##    network init   sample    epf      regular N      ldag  tree   dag
##    <chr>   <chr>  <chr>     <fct>    <chr>   <fct> <dbl> <dbl> <dbl>
##  1 LDAG10  hcskel partition epf1     reg0    N300     30    30    NA
##  2 LDAG10  hcskel partition epf2     reg0    N300     30    30    NA
##  3 LDAG10  hcskel partition epf10    reg0    N300     30    30    NA
##  4 LDAG10  hcskel partition epf100   reg0    N300     30    30    NA
##  5 LDAG10  hcskel partition epf1000  reg0    N300     30    30    NA
##  6 LDAG10  hcskel partition epf10000 reg0    N300     30    30    NA
##  7 LDAG10  hcskel partition epf1     reg1    N300     30    30    30
##  8 LDAG10  hcskel partition epf2     reg1    N300     30    30    30
##  9 LDAG10  hcskel partition epf10    reg1    N300     30    30    30
## 10 LDAG10  hcskel partition epf100   reg1    N300     30    30    NA
## # … with 38 more rows
…
